6 Use of historical control data with stratification – Applied Modelling in Drug Development
…
# Create summary statistics for the posteriors draws of coefficients
hist_post_coefs_df <- as_draws_df(hist_post_coefs)
hist_post_coefs_df[,1:5]

Warning: Dropping 'draws_df' class as required metadata was removed.

# A tibble: 4,000 × 5
   b_Intercept b_age_group1 b_age_group3 b_cBASE b_active
         <dbl>        <dbl>        <dbl>   <dbl>    <dbl>
 1      -3.51         3.09         2.93   0.424    -5.78 
 2       1.27        -1.35        -0.711  0.154     2.07 
 3      -0.755        0.419       -3.26  -0.0461   -3.52 
 4       0.549       -2.83        -2.24  -0.465     1.13 
 5      -0.904       -1.13        -1.40  -0.116    -0.732
 6      -3.34         4.09         3.57   0.346     1.80 
 7      -5.49         4.67         2.69   0.145    -4.13 
 8      -2.03        -0.224       -0.208  0.303    -7.01 
 9      -0.834        1.68         0.173  0.225    -7.50 
10      -0.458        0.535        0.821  0.0112   -1.57 
# ℹ 3,990 more rows
…
