18 Difference in proportions from a fitted logistic regression – Applied Modelling in Drug Development
…
difference <- new_data |>
  add_epred_rvars(brmfit1, value = "prob") |>
  pivot_wider(
    id_cols = c("USUBJID", "SITEID", "AGE"),
    names_from = "TRT01P",
    values_from = "prob"
  ) |>
  mutate(Difference = Drug - Placebo)

difference

# A tibble: 250 × 6
   USUBJID SITEID         AGE       Placebo          Drug    Difference
     <int> <fct>        <int>    <rvar[1d]>    <rvar[1d]>    <rvar[1d]>
 1       1 Study site 1    77  0.48 ± 0.066  0.68 ± 0.064  0.20 ± 0.062
 2       2 Study site 1    49  0.35 ± 0.058  0.56 ± 0.059  0.21 ± 0.064
 3       3 Study site 3    51  0.30 ± 0.072  0.50 ± 0.080  0.20 ± 0.062
 4       4 Study site 2    77  0.74 ± 0.082  0.87 ± 0.052  0.13 ± 0.050
 5       5 Study site 1    73  0.46 ± 0.061  0.67 ± 0.060  0.21 ± 0.063
 6       6 Study site 3    76  0.41 ± 0.084  0.61 ± 0.086  0.21 ± 0.063
 7       7 Study site 1    58  0.39 ± 0.053  0.60 ± 0.054  0.21 ± 0.064
 8       8 Study site 1    77  0.48 ± 0.066  0.68 ± 0.064  0.20 ± 0.062
 9       9 Study site 1    69  0.44 ± 0.057  0.65 ± 0.057  0.21 ± 0.063
10      10 Study site 1    52  0.36 ± 0.056  0.57 ± 0.057  0.21 ± 0.064
# ℹ 240 more rows
…
pred_difference <- new_data |>
  add_predicted_rvars(brmfit1, value = "pred") |>
  pivot_wider(
    id_cols = c("USUBJID", "SITEID", "AGE"),
    names_from = "TRT01P",
    values_from = "pred"
  ) |>
  mutate(Difference = Drug - Placebo)

pred_difference

# A tibble: 250 × 6
   USUBJID SITEID         AGE      Placebo         Drug   Difference
     <int> <fct>        <int>   <rvar[1d]>   <rvar[1d]>   <rvar[1d]>
 1       1 Study site 1    77  0.48 ± 0.50  0.67 ± 0.47  0.20 ± 0.69
 2       2 Study site 1    49  0.35 ± 0.48  0.58 ± 0.49  0.22 ± 0.69
 3       3 Study site 3    51  0.31 ± 0.46  0.49 ± 0.50  0.19 ± 0.68
 4       4 Study site 2    77  0.72 ± 0.45  0.86 ± 0.34  0.14 ± 0.55
 5       5 Study site 1    73  0.46 ± 0.50  0.67 ± 0.47  0.22 ± 0.69
 6       6 Study site 3    76  0.41 ± 0.49  0.62 ± 0.49  0.20 ± 0.68
 7       7 Study site 1    58  0.40 ± 0.49  0.61 ± 0.49  0.21 ± 0.70
 8       8 Study site 1    77  0.47 ± 0.50  0.68 ± 0.47  0.22 ± 0.68
 9       9 Study site 1    69  0.44 ± 0.50  0.65 ± 0.48  0.21 ± 0.69
10      10 Study site 1    52  0.35 ± 0.48  0.57 ± 0.49  0.22 ± 0.69
# ℹ 240 more rows
…
difference_oldstyle

# A tibble: 1,000,000 × 7
   USUBJID SITEID         AGE     m Placebo  Drug Difference
     <int> <fct>        <int> <int>   <dbl> <dbl>      <dbl>
 1       1 Study site 1    77     1 -0.423  0.795      0.293
 2       1 Study site 1    77     2 -0.363  0.760      0.271
 3       1 Study site 1    77     3 -0.387  0.669      0.257
 4       1 Study site 1    77     4 -0.263  0.854      0.267
 5       1 Study site 1    77     5  0.227  0.895      0.153
 6       1 Study site 1    77     6  0.426  0.923      0.111
 7       1 Study site 1    77     7 -0.173  0.362      0.133
 8       1 Study site 1    77     8 -0.239  0.755      0.240
 9       1 Study site 1    77     9  0.0124 0.571      0.136
10       1 Study site 1    77    10 -0.118  0.958      0.252
# ℹ 999,990 more rows
…
